%YAML 1.1
%TAG !u! tag:unity3d.com,2011:
--- !u!1 &859043670428487452
GameObject:
  m_ObjectHideFlags: 0
  m_CorrespondingSourceObject: {fileID: 0}
  m_PrefabInstance: {fileID: 0}
  m_PrefabAsset: {fileID: 0}
  serializedVersion: 6
  m_Component:
  - component: {fileID: 376026222705933063}
  - component: {fileID: 2511984678662221673}
  m_Layer: 31
  m_Name: Manual Pallet
  m_TagString: Untagged
  m_Icon: {fileID: 0}
  m_NavMeshLayer: 0
  m_StaticEditorFlags: 0
  m_IsActive: 1
--- !u!4 &376026222705933063
Transform:
  m_ObjectHideFlags: 0
  m_CorrespondingSourceObject: {fileID: 0}
  m_PrefabInstance: {fileID: 0}
  m_PrefabAsset: {fileID: 0}
  m_GameObject: {fileID: 859043670428487452}
  m_LocalRotation: {x: 0, y: 0, z: 0, w: 1}
  m_LocalPosition: {x: 0, y: 0, z: 0}
  m_LocalScale: {x: 1, y: 1, z: 1}
  m_Children:
  - {fileID: 7717074602882563483}
  m_Father: {fileID: 0}
  m_RootOrder: 0
  m_LocalEulerAnglesHint: {x: 0, y: 0, z: 0}
--- !u!156049354 &2511984678662221673
Grid:
  m_ObjectHideFlags: 0
  m_CorrespondingSourceObject: {fileID: 0}
  m_PrefabInstance: {fileID: 0}
  m_PrefabAsset: {fileID: 0}
  m_GameObject: {fileID: 859043670428487452}
  m_Enabled: 1
  m_CellSize: {x: 1, y: 1, z: 0}
  m_CellGap: {x: 0, y: 0, z: 0}
  m_CellLayout: 0
  m_CellSwizzle: 0
--- !u!1 &3360236311215793551
GameObject:
  m_ObjectHideFlags: 0
  m_CorrespondingSourceObject: {fileID: 0}
  m_PrefabInstance: {fileID: 0}
  m_PrefabAsset: {fileID: 0}
  serializedVersion: 6
  m_Component:
  - component: {fileID: 7717074602882563483}
  - component: {fileID: 5451858902882336430}
  - component: {fileID: 6349623700758706080}
  m_Layer: 31
  m_Name: Layer1
  m_TagString: Untagged
  m_Icon: {fileID: 0}
  m_NavMeshLayer: 0
  m_StaticEditorFlags: 0
  m_IsActive: 1
--- !u!4 &7717074602882563483
Transform:
  m_ObjectHideFlags: 0
  m_CorrespondingSourceObject: {fileID: 0}
  m_PrefabInstance: {fileID: 0}
  m_PrefabAsset: {fileID: 0}
  m_GameObject: {fileID: 3360236311215793551}
  m_LocalRotation: {x: -0, y: -0, z: -0, w: 1}
  m_LocalPosition: {x: 0, y: 0, z: 0}
  m_LocalScale: {x: 1, y: 1, z: 1}
  m_Children: []
  m_Father: {fileID: 376026222705933063}
  m_RootOrder: 0
  m_LocalEulerAnglesHint: {x: 0, y: 0, z: 0}
--- !u!1839735485 &5451858902882336430
Tilemap:
  m_ObjectHideFlags: 0
  m_CorrespondingSourceObject: {fileID: 0}
  m_PrefabInstance: {fileID: 0}
  m_PrefabAsset: {fileID: 0}
  m_GameObject: {fileID: 3360236311215793551}
  m_Enabled: 1
  m_Tiles:
  - first: {x: -4, y: -10, z: 0}
    second:
      m_TileIndex: 43
      m_TileSpriteIndex: 43
      m_TileMatrixIndex: 0
      m_TileColorIndex: 0
      m_ObjectToInstantiate: {fileID: 0}
      m_TileFlags: 1
      m_ColliderType: 1
  - first: {x: -3, y: -10, z: 0}
    second:
      m_TileIndex: 42
      m_TileSpriteIndex: 42
      m_TileMatrixIndex: 0
      m_TileColorIndex: 0
      m_ObjectToInstantiate: {fileID: 0}
      m_TileFlags: 1
      m_ColliderType: 1
  - first: {x: -2, y: -10, z: 0}
    second:
      m_TileIndex: 41
      m_TileSpriteIndex: 41
      m_TileMatrixIndex: 0
      m_TileColorIndex: 0
      m_ObjectToInstantiate: {fileID: 0}
      m_TileFlags: 1
      m_ColliderType: 1
  - first: {x: 3, y: -10, z: 0}
    second:
      m_TileIndex: 28
      m_TileSpriteIndex: 28
      m_TileMatrixIndex: 0
      m_TileColorIndex: 0
      m_ObjectToInstantiate: {fileID: 0}
      m_TileFlags: 1
      m_ColliderType: 1
  - first: {x: 4, y: -10, z: 0}
    second:
      m_TileIndex: 27
      m_TileSpriteIndex: 27
      m_TileMatrixIndex: 0
      m_TileColorIndex: 0
      m_ObjectToInstantiate: {fileID: 0}
      m_TileFlags: 1
      m_ColliderType: 1
  - first: {x: -4, y: -9, z: 0}
    second:
      m_TileIndex: 38
      m_TileSpriteIndex: 38
      m_TileMatrixIndex: 0
      m_TileColorIndex: 0
      m_ObjectToInstantiate: {fileID: 0}
      m_TileFlags: 1
      m_ColliderType: 1
  - first: {x: -3, y: -9, z: 0}
    second:
      m_TileIndex: 37
      m_TileSpriteIndex: 37
      m_TileMatrixIndex: 0
      m_TileColorIndex: 0
      m_ObjectToInstantiate: {fileID: 0}
      m_TileFlags: 1
      m_ColliderType: 1
  - first: {x: -2, y: -9, z: 0}
    second:
      m_TileIndex: 36
      m_TileSpriteIndex: 36
      m_TileMatrixIndex: 0
      m_TileColorIndex: 0
      m_ObjectToInstantiate: {fileID: 0}
      m_TileFlags: 1
      m_ColliderType: 1
  - first: {x: 0, y: -9, z: 0}
    second:
      m_TileIndex: 45
      m_TileSpriteIndex: 45
      m_TileMatrixIndex: 0
      m_TileColorIndex: 0
      m_ObjectToInstantiate: {fileID: 0}
      m_TileFlags: 1
      m_ColliderType: 1
  - first: {x: 1, y: -9, z: 0}
    second:
      m_TileIndex: 44
      m_TileSpriteIndex: 44
      m_TileMatrixIndex: 0
      m_TileColorIndex: 0
      m_ObjectToInstantiate: {fileID: 0}
      m_TileFlags: 1
      m_ColliderType: 1
  - first: {x: 3, y: -9, z: 0}
    second:
      m_TileIndex: 24
      m_TileSpriteIndex: 24
      m_TileMatrixIndex: 0
      m_TileColorIndex: 0
      m_ObjectToInstantiate: {fileID: 0}
      m_TileFlags: 1
      m_ColliderType: 1
  - first: {x: 4, y: -9, z: 0}
    second:
      m_TileIndex: 23
      m_TileSpriteIndex: 23
      m_TileMatrixIndex: 0
      m_TileColorIndex: 0
      m_ObjectToInstantiate: {fileID: 0}
      m_TileFlags: 1
      m_ColliderType: 1
  - first: {x: 5, y: -9, z: 0}
    second:
      m_TileIndex: 22
      m_TileSpriteIndex: 22
      m_TileMatrixIndex: 0
      m_TileColorIndex: 0
      m_ObjectToInstantiate: {fileID: 0}
      m_TileFlags: 1
      m_ColliderType: 1
  - first: {x: -4, y: -7, z: 0}
    second:
      m_TileIndex: 33
      m_TileSpriteIndex: 33
      m_TileMatrixIndex: 0
      m_TileColorIndex: 0
      m_ObjectToInstantiate: {fileID: 0}
      m_TileFlags: 1
      m_ColliderType: 1
  - first: {x: -3, y: -7, z: 0}
    second:
      m_TileIndex: 32
      m_TileSpriteIndex: 32
      m_TileMatrixIndex: 0
      m_TileColorIndex: 0
      m_ObjectToInstantiate: {fileID: 0}
      m_TileFlags: 1
      m_ColliderType: 1
  - first: {x: -2, y: -7, z: 0}
    second:
      m_TileIndex: 31
      m_TileSpriteIndex: 31
      m_TileMatrixIndex: 0
      m_TileColorIndex: 0
      m_ObjectToInstantiate: {fileID: 0}
      m_TileFlags: 1
      m_ColliderType: 1
  - first: {x: -1, y: -7, z: 0}
    second:
      m_TileIndex: 33
      m_TileSpriteIndex: 33
      m_TileMatrixIndex: 2
      m_TileColorIndex: 0
      m_ObjectToInstantiate: {fileID: 0}
      m_TileFlags: 1
      m_ColliderType: 1
  - first: {x: -4, y: -6, z: 0}
    second:
      m_TileIndex: 26
      m_TileSpriteIndex: 26
      m_TileMatrixIndex: 0
      m_TileColorIndex: 0
      m_ObjectToInstantiate: {fileID: 0}
      m_TileFlags: 1
      m_ColliderType: 1
  - first: {x: -1, y: -6, z: 0}
    second:
      m_TileIndex: 26
      m_TileSpriteIndex: 26
      m_TileMatrixIndex: 2
      m_TileColorIndex: 0
      m_ObjectToInstantiate: {fileID: 0}
      m_TileFlags: 1
      m_ColliderType: 1
  - first: {x: 1, y: -6, z: 0}
    second:
      m_TileIndex: 40
      m_TileSpriteIndex: 40
      m_TileMatrixIndex: 0
      m_TileColorIndex: 0
      m_ObjectToInstantiate: {fileID: 0}
      m_TileFlags: 1
      m_ColliderType: 1
  - first: {x: 9, y: -6, z: 0}
    second:
      m_TileIndex: 39
      m_TileSpriteIndex: 39
      m_TileMatrixIndex: 0
      m_TileColorIndex: 0
      m_ObjectToInstantiate: {fileID: 0}
      m_TileFlags: 1
      m_ColliderType: 1
  - first: {x: -4, y: -5, z: 0}
    second:
      m_TileIndex: 21
      m_TileSpriteIndex: 21
      m_TileMatrixIndex: 0
      m_TileColorIndex: 0
      m_ObjectToInstantiate: {fileID: 0}
      m_TileFlags: 1
      m_ColliderType: 1
  - first: {x: -1, y: -5, z: 0}
    second:
      m_TileIndex: 21
      m_TileSpriteIndex: 21
      m_TileMatrixIndex: 2
      m_TileColorIndex: 0
      m_ObjectToInstantiate: {fileID: 0}
      m_TileFlags: 1
      m_ColliderType: 1
  - first: {x: 3, y: -5, z: 0}
    second:
      m_TileIndex: 35
      m_TileSpriteIndex: 35
      m_TileMatrixIndex: 0
      m_TileColorIndex: 0
      m_ObjectToInstantiate: {fileID: 0}
      m_TileFlags: 1
      m_ColliderType: 1
  - first: {x: 9, y: -5, z: 0}
    second:
      m_TileIndex: 34
      m_TileSpriteIndex: 34
      m_TileMatrixIndex: 0
      m_TileColorIndex: 0
      m_ObjectToInstantiate: {fileID: 0}
      m_TileFlags: 1
      m_ColliderType: 1
  - first: {x: -4, y: -4, z: 0}
    second:
      m_TileIndex: 16
      m_TileSpriteIndex: 16
      m_TileMatrixIndex: 0
      m_TileColorIndex: 0
      m_ObjectToInstantiate: {fileID: 0}
      m_TileFlags: 1
      m_ColliderType: 1
  - first: {x: -3, y: -4, z: 0}
    second:
      m_TileIndex: 18
      m_TileSpriteIndex: 18
      m_TileMatrixIndex: 0
      m_TileColorIndex: 0
      m_ObjectToInstantiate: {fileID: 0}
      m_TileFlags: 1
      m_ColliderType: 1
  - first: {x: -2, y: -4, z: 0}
    second:
      m_TileIndex: 17
      m_TileSpriteIndex: 17
      m_TileMatrixIndex: 0
      m_TileColorIndex: 0
      m_ObjectToInstantiate: {fileID: 0}
      m_TileFlags: 1
      m_ColliderType: 1
  - first: {x: -1, y: -4, z: 0}
    second:
      m_TileIndex: 16
      m_TileSpriteIndex: 16
      m_TileMatrixIndex: 2
      m_TileColorIndex: 0
      m_ObjectToInstantiate: {fileID: 0}
      m_TileFlags: 1
      m_ColliderType: 1
  - first: {x: 1, y: -4, z: 0}
    second:
      m_TileIndex: 30
      m_TileSpriteIndex: 30
      m_TileMatrixIndex: 0
      m_TileColorIndex: 0
      m_ObjectToInstantiate: {fileID: 0}
      m_TileFlags: 1
      m_ColliderType: 1
  - first: {x: 2, y: -4, z: 0}
    second:
      m_TileIndex: 29
      m_TileSpriteIndex: 29
      m_TileMatrixIndex: 0
      m_TileColorIndex: 0
      m_ObjectToInstantiate: {fileID: 0}
      m_TileFlags: 1
      m_ColliderType: 1
  - first: {x: 3, y: -4, z: 0}
    second:
      m_TileIndex: 25
      m_TileSpriteIndex: 25
      m_TileMatrixIndex: 0
      m_TileColorIndex: 0
      m_ObjectToInstantiate: {fileID: 0}
      m_TileFlags: 1
      m_ColliderType: 1
  - first: {x: 4, y: -4, z: 0}
    second:
      m_TileIndex: 29
      m_TileSpriteIndex: 29
      m_TileMatrixIndex: 0
      m_TileColorIndex: 0
      m_ObjectToInstantiate: {fileID: 0}
      m_TileFlags: 1
      m_ColliderType: 1
  - first: {x: 5, y: -4, z: 0}
    second:
      m_TileIndex: 30
      m_TileSpriteIndex: 30
      m_TileMatrixIndex: 1
      m_TileColorIndex: 0
      m_ObjectToInstantiate: {fileID: 0}
      m_TileFlags: 1
      m_ColliderType: 1
  - first: {x: 9, y: -4, z: 0}
    second:
      m_TileIndex: 19
      m_TileSpriteIndex: 19
      m_TileMatrixIndex: 0
      m_TileColorIndex: 0
      m_ObjectToInstantiate: {fileID: 0}
      m_TileFlags: 1
      m_ColliderType: 1
  - first: {x: 6, y: -3, z: 0}
    second:
      m_TileIndex: 20
      m_TileSpriteIndex: 20
      m_TileMatrixIndex: 0
      m_TileColorIndex: 0
      m_ObjectToInstantiate: {fileID: 0}
      m_TileFlags: 1
      m_ColliderType: 1
  - first: {x: -1, y: -2, z: 0}
    second:
      m_TileIndex: 12
      m_TileSpriteIndex: 12
      m_TileMatrixIndex: 0
      m_TileColorIndex: 0
      m_ObjectToInstantiate: {fileID: 0}
      m_TileFlags: 1
      m_ColliderType: 1
  - first: {x: 0, y: -2, z: 0}
    second:
      m_TileIndex: 14
      m_TileSpriteIndex: 14
      m_TileMatrixIndex: 0
      m_TileColorIndex: 0
      m_ObjectToInstantiate: {fileID: 0}
      m_TileFlags: 1
      m_ColliderType: 1
  - first: {x: 1, y: -2, z: 0}
    second:
      m_TileIndex: 13
      m_TileSpriteIndex: 13
      m_TileMatrixIndex: 0
      m_TileColorIndex: 0
      m_ObjectToInstantiate: {fileID: 0}
      m_TileFlags: 1
      m_ColliderType: 1
  - first: {x: 2, y: -2, z: 0}
    second:
      m_TileIndex: 15
      m_TileSpriteIndex: 15
      m_TileMatrixIndex: 0
      m_TileColorIndex: 0
      m_ObjectToInstantiate: {fileID: 0}
      m_TileFlags: 1
      m_ColliderType: 1
  - first: {x: -1, y: -1, z: 0}
    second:
      m_TileIndex: 8
      m_TileSpriteIndex: 8
      m_TileMatrixIndex: 0
      m_TileColorIndex: 0
      m_ObjectToInstantiate: {fileID: 0}
      m_TileFlags: 1
      m_ColliderType: 1
  - first: {x: 0, y: -1, z: 0}
    second:
      m_TileIndex: 9
      m_TileSpriteIndex: 9
      m_TileMatrixIndex: 0
      m_TileColorIndex: 0
      m_ObjectToInstantiate: {fileID: 0}
      m_TileFlags: 1
      m_ColliderType: 1
  - first: {x: 1, y: -1, z: 0}
    second:
      m_TileIndex: 10
      m_TileSpriteIndex: 10
      m_TileMatrixIndex: 0
      m_TileColorIndex: 0
      m_ObjectToInstantiate: {fileID: 0}
      m_TileFlags: 1
      m_ColliderType: 1
  - first: {x: 2, y: -1, z: 0}
    second:
      m_TileIndex: 11
      m_TileSpriteIndex: 11
      m_TileMatrixIndex: 0
      m_TileColorIndex: 0
      m_ObjectToInstantiate: {fileID: 0}
      m_TileFlags: 1
      m_ColliderType: 1
  - first: {x: -1, y: 0, z: 0}
    second:
      m_TileIndex: 4
      m_TileSpriteIndex: 4
      m_TileMatrixIndex: 0
      m_TileColorIndex: 0
      m_ObjectToInstantiate: {fileID: 0}
      m_TileFlags: 1
      m_ColliderType: 1
  - first: {x: 0, y: 0, z: 0}
    second:
      m_TileIndex: 5
      m_TileSpriteIndex: 5
      m_TileMatrixIndex: 0
      m_TileColorIndex: 0
      m_ObjectToInstantiate: {fileID: 0}
      m_TileFlags: 1
      m_ColliderType: 1
  - first: {x: 1, y: 0, z: 0}
    second:
      m_TileIndex: 6
      m_TileSpriteIndex: 6
      m_TileMatrixIndex: 0
      m_TileColorIndex: 0
      m_ObjectToInstantiate: {fileID: 0}
      m_TileFlags: 1
      m_ColliderType: 1
  - first: {x: 2, y: 0, z: 0}
    second:
      m_TileIndex: 7
      m_TileSpriteIndex: 7
      m_TileMatrixIndex: 0
      m_TileColorIndex: 0
      m_ObjectToInstantiate: {fileID: 0}
      m_TileFlags: 1
      m_ColliderType: 1
  - first: {x: -1, y: 1, z: 0}
    second:
      m_TileIndex: 0
      m_TileSpriteIndex: 0
      m_TileMatrixIndex: 0
      m_TileColorIndex: 0
      m_ObjectToInstantiate: {fileID: 0}
      m_TileFlags: 1
      m_ColliderType: 1
  - first: {x: 0, y: 1, z: 0}
    second:
      m_TileIndex: 1
      m_TileSpriteIndex: 1
      m_TileMatrixIndex: 0
      m_TileColorIndex: 0
      m_ObjectToInstantiate: {fileID: 0}
      m_TileFlags: 1
      m_ColliderType: 1
  - first: {x: 1, y: 1, z: 0}
    second:
      m_TileIndex: 2
      m_TileSpriteIndex: 2
      m_TileMatrixIndex: 0
      m_TileColorIndex: 0
      m_ObjectToInstantiate: {fileID: 0}
      m_TileFlags: 1
      m_ColliderType: 1
  - first: {x: 2, y: 1, z: 0}
    second:
      m_TileIndex: 3
      m_TileSpriteIndex: 3
      m_TileMatrixIndex: 0
      m_TileColorIndex: 0
      m_ObjectToInstantiate: {fileID: 0}
      m_TileFlags: 1
      m_ColliderType: 1
  - first: {x: 0, y: 6, z: 0}
    second:
      m_TileIndex: 46
      m_TileSpriteIndex: 40
      m_TileMatrixIndex: 0
      m_TileColorIndex: 0
      m_ObjectToInstantiate: {fileID: 0}
      m_TileFlags: 2
      m_ColliderType: 1
  m_AnimatedTiles: {}
  m_TileAssetArray:
  - m_RefCount: 1
    m_Data: {fileID: 11400000, guid: 21f8ab6dac0a45748b27aed6ee94bd97, type: 2}
  - m_RefCount: 1
    m_Data: {fileID: 11400000, guid: 3f22231ecd318864d9861f860187a61d, type: 2}
  - m_RefCount: 1
    m_Data: {fileID: 11400000, guid: a9f3c3d6d2e63c04191dfd220c99ecc2, type: 2}
  - m_RefCount: 1
    m_Data: {fileID: 11400000, guid: e5b445cc1ba9b1141aff391a56b5506f, type: 2}
  - m_RefCount: 1
    m_Data: {fileID: 11400000, guid: 6c7848be685cd8d469da3ae9a03c218c, type: 2}
  - m_RefCount: 1
    m_Data: {fileID: 11400000, guid: a884b46edc820d642898d9248e7a4118, type: 2}
  - m_RefCount: 1
    m_Data: {fileID: 11400000, guid: 21cdfb8f70dbc5d4e9ff08cc6ef06721, type: 2}
  - m_RefCount: 1
    m_Data: {fileID: 11400000, guid: dd9d86e05da6c7441806660e928e9d60, type: 2}
  - m_RefCount: 1
    m_Data: {fileID: 11400000, guid: 2468120f9cb15934cb366f518dd7aca8, type: 2}
  - m_RefCount: 1
    m_Data: {fileID: 11400000, guid: 141709f71ad5d20459610c0d774e2388, type: 2}
  - m_RefCount: 1
    m_Data: {fileID: 11400000, guid: a23105f20dd429f418c94554abad9f39, type: 2}
  - m_RefCount: 1
    m_Data: {fileID: 11400000, guid: 14faa33f3cbec404385101626678a136, type: 2}
  - m_RefCount: 1
    m_Data: {fileID: 11400000, guid: ec6b9acaeab41bd4184aef064aad2089, type: 2}
  - m_RefCount: 1
    m_Data: {fileID: 11400000, guid: 815b06f5738610046a1ed38dc6a043c4, type: 2}
  - m_RefCount: 1
    m_Data: {fileID: 11400000, guid: d7c72143d0d58194d88d487673f2fb5c, type: 2}
  - m_RefCount: 1
    m_Data: {fileID: 11400000, guid: 211909693e3e0964e93359ce5f17d320, type: 2}
  - m_RefCount: 2
    m_Data: {fileID: 11400000, guid: bfdb823c638fbd44a8fbfc42fc11840c, type: 2}
  - m_RefCount: 1
    m_Data: {fileID: 11400000, guid: 77cbe0243ee958a47b6aa81096152fa1, type: 2}
  - m_RefCount: 1
    m_Data: {fileID: 11400000, guid: d56680faed125a141a95eb7539832355, type: 2}
  - m_RefCount: 1
    m_Data: {fileID: 11400000, guid: b500a12b37534a24bba17861aebc0b90, type: 2}
  - m_RefCount: 1
    m_Data: {fileID: 11400000, guid: 254ed0ec150949842b1dfe78fdec2fa8, type: 2}
  - m_RefCount: 2
    m_Data: {fileID: 11400000, guid: 6e8e2aa34f58d994c80827e0ba55bc53, type: 2}
  - m_RefCount: 1
    m_Data: {fileID: 11400000, guid: 7bbee92e98d2b804bb3ea2bc43f0c486, type: 2}
  - m_RefCount: 1
    m_Data: {fileID: 11400000, guid: 17a7eaacef82db04eb7bba5bc6521be8, type: 2}
  - m_RefCount: 1
    m_Data: {fileID: 11400000, guid: a228fc1258ddc1741a854facff06abbf, type: 2}
  - m_RefCount: 1
    m_Data: {fileID: 11400000, guid: 9df69148d97b33146a872418019a534d, type: 2}
  - m_RefCount: 2
    m_Data: {fileID: 11400000, guid: f02c35005e194aa4d8d1f7095267f9d4, type: 2}
  - m_RefCount: 1
    m_Data: {fileID: 11400000, guid: 3e0b19b2580e30942845e6789b76e1a4, type: 2}
  - m_RefCount: 1
    m_Data: {fileID: 11400000, guid: 51298baa57c620f449ce9e7523680cda, type: 2}
  - m_RefCount: 2
    m_Data: {fileID: 11400000, guid: 3a3a7237dca78dd45a29c48444869ba4, type: 2}
  - m_RefCount: 2
    m_Data: {fileID: 11400000, guid: 7019e2efa94e12e4088fa74e46867b7b, type: 2}
  - m_RefCount: 1
    m_Data: {fileID: 11400000, guid: d6ed768cfb67f21428026190e69e9d3c, type: 2}
  - m_RefCount: 1
    m_Data: {fileID: 11400000, guid: c22913832caa8204daaa2be3681a1fc0, type: 2}
  - m_RefCount: 2
    m_Data: {fileID: 11400000, guid: d072f2b415ffec3488b3674858e55722, type: 2}
  - m_RefCount: 1
    m_Data: {fileID: 11400000, guid: eeaf5a9f20b8fd4409591e1aae2fb43c, type: 2}
  - m_RefCount: 1
    m_Data: {fileID: 11400000, guid: 7f0bae90c5c3b9c459d9cef53cad7ae9, type: 2}
  - m_RefCount: 1
    m_Data: {fileID: 11400000, guid: bd28a9f8b89731746a94e1ddb48ebd37, type: 2}
  - m_RefCount: 1
    m_Data: {fileID: 11400000, guid: 1192c767a2af63f45a62ed80883a41f2, type: 2}
  - m_RefCount: 1
    m_Data: {fileID: 11400000, guid: 31d2ea2870b37c04bad633205e6ef528, type: 2}
  - m_RefCount: 1
    m_Data: {fileID: 11400000, guid: 04f3a7cde3480bf4eada0965fe2e01b8, type: 2}
  - m_RefCount: 1
    m_Data: {fileID: 11400000, guid: 6f92c48e060598a41ba897f96f827e99, type: 2}
  - m_RefCount: 1
    m_Data: {fileID: 11400000, guid: e1cb7dac60e108b478ac5b99a1a0a3b0, type: 2}
  - m_RefCount: 1
    m_Data: {fileID: 11400000, guid: 40f2787b0ea4b134387427d00972d71f, type: 2}
  - m_RefCount: 1
    m_Data: {fileID: 11400000, guid: 1aefbd6422a038a4c85ae363d24f95f1, type: 2}
  - m_RefCount: 1
    m_Data: {fileID: 11400000, guid: 64a47b76e4aa6644caf495cd92baeef0, type: 2}
  - m_RefCount: 1
    m_Data: {fileID: 11400000, guid: a4f9f610724158d4c89bf94da500c388, type: 2}
  - m_RefCount: 1
    m_Data: {fileID: 11400000, guid: b3f31082fe3223046b76715e15b50ff2, type: 2}
  m_TileSpriteArray:
  - m_RefCount: 1
    m_Data: {fileID: 21300000, guid: 2906611899f506149aa1f62421009207, type: 3}
  - m_RefCount: 1
    m_Data: {fileID: 21300002, guid: 2906611899f506149aa1f62421009207, type: 3}
  - m_RefCount: 1
    m_Data: {fileID: 21300004, guid: 2906611899f506149aa1f62421009207, type: 3}
  - m_RefCount: 1
    m_Data: {fileID: 21300006, guid: 2906611899f506149aa1f62421009207, type: 3}
  - m_RefCount: 1
    m_Data: {fileID: 21300008, guid: 2906611899f506149aa1f62421009207, type: 3}
  - m_RefCount: 1
    m_Data: {fileID: 21300010, guid: 2906611899f506149aa1f62421009207, type: 3}
  - m_RefCount: 1
    m_Data: {fileID: 21300012, guid: 2906611899f506149aa1f62421009207, type: 3}
  - m_RefCount: 1
    m_Data: {fileID: 21300014, guid: 2906611899f506149aa1f62421009207, type: 3}
  - m_RefCount: 1
    m_Data: {fileID: 21300016, guid: 2906611899f506149aa1f62421009207, type: 3}
  - m_RefCount: 1
    m_Data: {fileID: 21300018, guid: 2906611899f506149aa1f62421009207, type: 3}
  - m_RefCount: 1
    m_Data: {fileID: 21300020, guid: 2906611899f506149aa1f62421009207, type: 3}
  - m_RefCount: 1
    m_Data: {fileID: 21300022, guid: 2906611899f506149aa1f62421009207, type: 3}
  - m_RefCount: 1
    m_Data: {fileID: 21300024, guid: 2906611899f506149aa1f62421009207, type: 3}
  - m_RefCount: 1
    m_Data: {fileID: 21300028, guid: 2906611899f506149aa1f62421009207, type: 3}
  - m_RefCount: 1
    m_Data: {fileID: 21300026, guid: 2906611899f506149aa1f62421009207, type: 3}
  - m_RefCount: 1
    m_Data: {fileID: 21300030, guid: 2906611899f506149aa1f62421009207, type: 3}
  - m_RefCount: 2
    m_Data: {fileID: 21300000, guid: 78e658c2043326d438662ab48bd55529, type: 3}
  - m_RefCount: 1
    m_Data: {fileID: 21300004, guid: 78e658c2043326d438662ab48bd55529, type: 3}
  - m_RefCount: 1
    m_Data: {fileID: 21300002, guid: 78e658c2043326d438662ab48bd55529, type: 3}
  - m_RefCount: 1
    m_Data: {fileID: 21300008, guid: 78e658c2043326d438662ab48bd55529, type: 3}
  - m_RefCount: 1
    m_Data: {fileID: 21300038, guid: 78e658c2043326d438662ab48bd55529, type: 3}
  - m_RefCount: 2
    m_Data: {fileID: 21300010, guid: 78e658c2043326d438662ab48bd55529, type: 3}
  - m_RefCount: 1
    m_Data: {fileID: 21300016, guid: 78e658c2043326d438662ab48bd55529, type: 3}
  - m_RefCount: 1
    m_Data: {fileID: 21300014, guid: 78e658c2043326d438662ab48bd55529, type: 3}
  - m_RefCount: 1
    m_Data: {fileID: 21300012, guid: 78e658c2043326d438662ab48bd55529, type: 3}
  - m_RefCount: 1
    m_Data: {fileID: 21300026, guid: 78e658c2043326d438662ab48bd55529, type: 3}
  - m_RefCount: 2
    m_Data: {fileID: 21300020, guid: 78e658c2043326d438662ab48bd55529, type: 3}
  - m_RefCount: 1
    m_Data: {fileID: 21300024, guid: 78e658c2043326d438662ab48bd55529, type: 3}
  - m_RefCount: 1
    m_Data: {fileID: 21300022, guid: 78e658c2043326d438662ab48bd55529, type: 3}
  - m_RefCount: 2
    m_Data: {fileID: 21300048, guid: 78e658c2043326d438662ab48bd55529, type: 3}
  - m_RefCount: 2
    m_Data: {fileID: 21300046, guid: 78e658c2043326d438662ab48bd55529, type: 3}
  - m_RefCount: 1
    m_Data: {fileID: 21300034, guid: 78e658c2043326d438662ab48bd55529, type: 3}
  - m_RefCount: 1
    m_Data: {fileID: 21300032, guid: 78e658c2043326d438662ab48bd55529, type: 3}
  - m_RefCount: 2
    m_Data: {fileID: 21300030, guid: 78e658c2043326d438662ab48bd55529, type: 3}
  - m_RefCount: 1
    m_Data: {fileID: 21300018, guid: 78e658c2043326d438662ab48bd55529, type: 3}
  - m_RefCount: 1
    m_Data: {fileID: 21300036, guid: 78e658c2043326d438662ab48bd55529, type: 3}
  - m_RefCount: 1
    m_Data: {fileID: 21300044, guid: 78e658c2043326d438662ab48bd55529, type: 3}
  - m_RefCount: 1
    m_Data: {fileID: 21300042, guid: 78e658c2043326d438662ab48bd55529, type: 3}
  - m_RefCount: 1
    m_Data: {fileID: 21300040, guid: 78e658c2043326d438662ab48bd55529, type: 3}
  - m_RefCount: 1
    m_Data: {fileID: 21300028, guid: 78e658c2043326d438662ab48bd55529, type: 3}
  - m_RefCount: 2
    m_Data: {fileID: 21300006, guid: 78e658c2043326d438662ab48bd55529, type: 3}
  - m_RefCount: 1
    m_Data: {fileID: 21300054, guid: 78e658c2043326d438662ab48bd55529, type: 3}
  - m_RefCount: 1
    m_Data: {fileID: 21300052, guid: 78e658c2043326d438662ab48bd55529, type: 3}
  - m_RefCount: 1
    m_Data: {fileID: 21300050, guid: 78e658c2043326d438662ab48bd55529, type: 3}
  - m_RefCount: 1
    m_Data: {fileID: 21300058, guid: 78e658c2043326d438662ab48bd55529, type: 3}
  - m_RefCount: 1
    m_Data: {fileID: 21300056, guid: 78e658c2043326d438662ab48bd55529, type: 3}
  m_TileMatrixArray:
  - m_RefCount: 48
    m_Data:
      e00: 1
      e01: 0
      e02: 0
      e03: 0
      e10: 0
      e11: 1
      e12: 0
      e13: 0
      e20: 0
      e21: 0
      e22: 1
      e23: 0
      e30: 0
      e31: 0
      e32: 0
      e33: 1
  - m_RefCount: 1
    m_Data:
      e00: 1
      e01: 0
      e02: 0
      e03: 0
      e10: 0
      e11: 0.000000059604645
      e12: 0.99999994
      e13: 0
      e20: 0
      e21: -0.99999994
      e22: 0.000000059604645
      e23: 0
      e30: 0
      e31: 0
      e32: 0
      e33: 1
  - m_RefCount: 4
    m_Data:
      e00: -1
      e01: 0
      e02: 0
      e03: 0
      e10: -0
      e11: 1
      e12: 0
      e13: 0
      e20: -0
      e21: 0
      e22: 1
      e23: 0
      e30: 0
      e31: 0
      e32: 0
      e33: 1
  - m_RefCount: 0
    m_Data:
      e00: 56852544
      e01: NaN
      e02: 0
      e03: 1.0652918e-38
      e10: 0
      e11: NaN
      e12: 0
      e13: 0
      e20: 8.785055e-39
      e21: -1.2406039e-26
      e22: 0.0000020695907
      e23: 0
      e30: 0
      e31: 4.5912e-41
      e32: 4.5912e-41
      e33: 4.5912e-41
  - m_RefCount: 0
    m_Data:
      e00: NaN
      e01: NaN
      e02: 0
      e03: 0
      e10: NaN
      e11: NaN
      e12: NaN
      e13: 0
      e20: 0
      e21: 0
      e22: 1e-43
      e23: 0
      e30: NaN
      e31: 0
      e32: 0
      e33: 0
  m_TileColorArray:
  - m_RefCount: 53
    m_Data: {r: 1, g: 1, b: 1, a: 1}
  m_AnimationFrameRate: 1
  m_Color: {r: 1, g: 1, b: 1, a: 1}
  m_Origin: {x: -4, y: -10, z: 0}
  m_Size: {x: 14, y: 17, z: 1}
  m_TileAnchor: {x: 0.5, y: 0.5, z: 0}
  m_TileOrientation: 0
  m_TileOrientationMatrix:
    e00: 1
    e01: 0
    e02: 0
    e03: 0
    e10: 0
    e11: 1
    e12: 0
    e13: 0
    e20: 0
    e21: 0
    e22: 1
    e23: 0
    e30: 0
    e31: 0
    e32: 0
    e33: 1
--- !u!483693784 &6349623700758706080
TilemapRenderer:
  m_ObjectHideFlags: 0
  m_CorrespondingSourceObject: {fileID: 0}
  m_PrefabInstance: {fileID: 0}
  m_PrefabAsset: {fileID: 0}
  m_GameObject: {fileID: 3360236311215793551}
  m_Enabled: 0
  m_CastShadows: 0
  m_ReceiveShadows: 0
  m_DynamicOccludee: 0
  m_MotionVectors: 1
  m_LightProbeUsage: 0
  m_ReflectionProbeUsage: 0
  m_RenderingLayerMask: 1
  m_RendererPriority: 0
  m_Materials:
  - {fileID: 10754, guid: 0000000000000000f000000000000000, type: 0}
  m_StaticBatchInfo:
    firstSubMesh: 0
    subMeshCount: 0
  m_StaticBatchRoot: {fileID: 0}
  m_ProbeAnchor: {fileID: 0}
  m_LightProbeVolumeOverride: {fileID: 0}
  m_ScaleInLightmap: 1
  m_PreserveUVs: 0
  m_IgnoreNormalsForChartDetection: 0
  m_ImportantGI: 0
  m_StitchLightmapSeams: 0
  m_SelectedEditorRenderState: 0
  m_MinimumChartSize: 4
  m_AutoUVMaxDistance: 0.5
  m_AutoUVMaxAngle: 89
  m_LightmapParameters: {fileID: 0}
  m_SortingLayerID: 0
  m_SortingLayer: 0
  m_SortingOrder: 0
  m_ChunkSize: {x: 32, y: 32, z: 32}
  m_ChunkCullingBounds: {x: 0, y: 0, z: 0}
  m_MaxChunkCount: 16
  m_MaxFrameAge: 16
  m_SortOrder: 0
  m_Mode: 0
  m_DetectChunkCullingBounds: 0
  m_MaskInteraction: 0
--- !u!114 &114302927029751078
MonoBehaviour:
  m_ObjectHideFlags: 0
  m_CorrespondingSourceObject: {fileID: 0}
  m_PrefabInstance: {fileID: 0}
  m_PrefabAsset: {fileID: 0}
  m_GameObject: {fileID: 0}
  m_Enabled: 1
  m_EditorHideFlags: 0
  m_Script: {fileID: 12395, guid: 0000000000000000e000000000000000, type: 0}
  m_Name: Palette Settings
  m_EditorClassIdentifier: 
  cellSizing: 0
